module yandex_lavka

go 1.20

require (
	github.com/go-pg/pg/v10 v10.11.0
	github.com/golang/mock v1.6.0
	github.com/labstack/echo/v4 v4.10.2
	github.com/pkg/errors v0.9.1
)

require (
	github.com/go-pg/zerochecker v0.2.0 // indirect
	github.com/golang-jwt/jwt v3.2.2+incompatible // indirect
	github.com/jinzhu/inflection v1.0.0 // indirect
	github.com/labstack/gommon v0.4.0 // indirect
	github.com/mattn/go-colorable v0.1.13 // indirect
	github.com/mattn/go-isatty v0.0.17 // indirect
	github.com/tmthrgd/go-hex v0.0.0-20190904060850-447a3041c3bc // indirect
	github.com/valyala/bytebufferpool v1.0.0 // indirect
	github.com/valyala/fasttemplate v1.2.2 // indirect
	github.com/vmihailenco/bufpool v0.1.11 // indirect
	github.com/vmihailenco/msgpack/v5 v5.3.4 // indirect
	github.com/vmihailenco/tagparser v0.1.2 // indirect
	github.com/vmihailenco/tagparser/v2 v2.0.0 // indirect
	golang.org/x/crypto v0.6.0 // indirect
	golang.org/x/net v0.7.0 // indirect
	golang.org/x/sys v0.5.0 // indirect
	golang.org/x/text v0.7.0 // indirect
	golang.org/x/time v0.3.0 // indirect
	mellium.im/sasl v0.3.1 // indirect
)
